﻿Domain Code,Domain,Area Code,Area,Element Code,Element,Item Code,Item,Year Code,Year,Unit,Value,Flag,Flag Description
QI,Production Indices,2,Afghanistan,432,Gross Production Index Number (2014-2016 = 100),2051,Agriculture,2018,2018,index,96.23,Fc,Calculated data
QI,Production Indices,3,Albania,432,Gross Production Index Number (2014-2016 = 100),2051,Agriculture,2018,2018,index,105.63,Fc,Calculated data
QI,Production Indices,4,Algeria,432,Gross Production Index Number (2014-2016 = 100),2051,Agriculture,2018,2018,index,107.67,Fc,Calculated data
QI,Production Indices,9,Argentina,432,Gross Production Index Number (2014-2016 = 100),2051,Agriculture,2018,2018,index,97.18,Fc,Calculated data
QI,Production Indices,10,Australia,432,Gross Production Index Number (2014-2016 = 100),2051,Agriculture,2018,2018,index,96.57,Fc,Calculated data
QI,Production Indices,11,Austria,432,Gross Production Index Number (2014-2016 = 100),2051,Agriculture,2018,2018,index,100.45,Fc,Calculated data
QI,Production Indices,52,Azerbaijan,432,Gross Production Index Number (2014-2016 = 100),2051,Agriculture,2018,2018,index,116.91,Fc,Calculated data
QI,Production Indices,16,Bangladesh,432,Gross Production Index Number (2014-2016 = 100),2051,Agriculture,2018,2018,index,107.87,Fc,Calculated data
QI,Production Indices,255,Belgium,432,Gross Production Index Number (2014-2016 = 100),2051,Agriculture,2018,2018,index,95.74,Fc,Calculated data
QI,Production Indices,80,Bosnia and Herzegovina,432,Gross Production Index Number (2014-2016 = 100),2051,Agriculture,2018,2018,index,115.06,Fc,Calculated data
QI,Production Indices,20,Botswana,432,Gross Production Index Number (2014-2016 = 100),2051,Agriculture,2018,2018,index,100.29,Fc,Calculated data
QI,Production Indices,21,Brazil,432,Gross Production Index Number (2014-2016 = 100),2051,Agriculture,2018,2018,index,108.02,Fc,Calculated data
QI,Production Indices,27,Bulgaria,432,Gross Production Index Number (2014-2016 = 100),2051,Agriculture,2018,2018,index,104.47,Fc,Calculated data
QI,Production Indices,233,Burkina Faso,432,Gross Production Index Number (2014-2016 = 100),2051,Agriculture,2018,2018,index,98.19,Fc,Calculated data
QI,Production Indices,35,Cabo Verde,432,Gross Production Index Number (2014-2016 = 100),2051,Agriculture,2018,2018,index,80.67,Fc,Calculated data
QI,Production Indices,115,Cambodia,432,Gross Production Index Number (2014-2016 = 100),2051,Agriculture,2018,2018,index,117.89,Fc,Calculated data
QI,Production Indices,40,Chile,432,Gross Production Index Number (2014-2016 = 100),2051,Agriculture,2018,2018,index,106.91,Fc,Calculated data
QI,Production Indices,48,Costa Rica,432,Gross Production Index Number (2014-2016 = 100),2051,Agriculture,2018,2018,index,105.5,Fc,Calculated data
QI,Production Indices,98,Croatia,432,Gross Production Index Number (2014-2016 = 100),2051,Agriculture,2018,2018,index,82.6,Fc,Calculated data
QI,Production Indices,167,Czechia,432,Gross Production Index Number (2014-2016 = 100),2051,Agriculture,2018,2018,index,92.91,Fc,Calculated data
QI,Production Indices,54,Denmark,432,Gross Production Index Number (2014-2016 = 100),2051,Agriculture,2018,2018,index,92.81,Fc,Calculated data
QI,Production Indices,59,Egypt,432,Gross Production Index Number (2014-2016 = 100),2051,Agriculture,2018,2018,index,97.23,Fc,Calculated data
QI,Production Indices,60,El Salvador,432,Gross Production Index Number (2014-2016 = 100),2051,Agriculture,2018,2018,index,100.08,Fc,Calculated data
QI,Production Indices,63,Estonia,432,Gross Production Index Number (2014-2016 = 100),2051,Agriculture,2018,2018,index,84.67,Fc,Calculated data
QI,Production Indices,209,Eswatini,432,Gross Production Index Number (2014-2016 = 100),2051,Agriculture,2018,2018,index,100.78,Fc,Calculated data
QI,Production Indices,238,Ethiopia,432,Gross Production Index Number (2014-2016 = 100),2051,Agriculture,2018,2018,index,104.88,Fc,Calculated data
QI,Production Indices,67,Finland,432,Gross Production Index Number (2014-2016 = 100),2051,Agriculture,2018,2018,index,92.95,Fc,Calculated data
QI,Production Indices,68,France,432,Gross Production Index Number (2014-2016 = 100),2051,Agriculture,2018,2018,index,96.8,Fc,Calculated data
QI,Production Indices,75,Gambia,432,Gross Production Index Number (2014-2016 = 100),2051,Agriculture,2018,2018,index,93.36,Fc,Calculated data
QI,Production Indices,73,Georgia,432,Gross Production Index Number (2014-2016 = 100),2051,Agriculture,2018,2018,index,103.78,Fc,Calculated data
QI,Production Indices,79,Germany,432,Gross Production Index Number (2014-2016 = 100),2051,Agriculture,2018,2018,index,91.47,Fc,Calculated data
QI,Production Indices,81,Ghana,432,Gross Production Index Number (2014-2016 = 100),2051,Agriculture,2018,2018,index,113.99,Fc,Calculated data
QI,Production Indices,84,Greece,432,Gross Production Index Number (2014-2016 = 100),2051,Agriculture,2018,2018,index,76.54,Fc,Calculated data
QI,Production Indices,89,Guatemala,432,Gross Production Index Number (2014-2016 = 100),2051,Agriculture,2018,2018,index,103.4,Fc,Calculated data
QI,Production Indices,90,Guinea,432,Gross Production Index Number (2014-2016 = 100),2051,Agriculture,2018,2018,index,115.07,Fc,Calculated data
QI,Production Indices,95,Honduras,432,Gross Production Index Number (2014-2016 = 100),2051,Agriculture,2018,2018,index,117.56,Fc,Calculated data
QI,Production Indices,97,Hungary,432,Gross Production Index Number (2014-2016 = 100),2051,Agriculture,2018,2018,index,98.03,Fc,Calculated data
QI,Production Indices,99,Iceland,432,Gross Production Index Number (2014-2016 = 100),2051,Agriculture,2018,2018,index,107.72,Fc,Calculated data
QI,Production Indices,101,Indonesia,432,Gross Production Index Number (2014-2016 = 100),2051,Agriculture,2018,2018,index,117.72,Fc,Calculated data
QI,Production Indices,102,Iran (Islamic Republic of),432,Gross Production Index Number (2014-2016 = 100),2051,Agriculture,2018,2018,index,89.3,Fc,Calculated data
QI,Production Indices,104,Ireland,432,Gross Production Index Number (2014-2016 = 100),2051,Agriculture,2018,2018,index,108.68,Fc,Calculated data
QI,Production Indices,105,Israel,432,Gross Production Index Number (2014-2016 = 100),2051,Agriculture,2018,2018,index,96.34,Fc,Calculated data
QI,Production Indices,106,Italy,432,Gross Production Index Number (2014-2016 = 100),2051,Agriculture,2018,2018,index,98.84,Fc,Calculated data
QI,Production Indices,110,Japan,432,Gross Production Index Number (2014-2016 = 100),2051,Agriculture,2018,2018,index,99.46,Fc,Calculated data
QI,Production Indices,108,Kazakhstan,432,Gross Production Index Number (2014-2016 = 100),2051,Agriculture,2018,2018,index,114.81,Fc,Calculated data
QI,Production Indices,118,Kuwait,432,Gross Production Index Number (2014-2016 = 100),2051,Agriculture,2018,2018,index,126.54,Fc,Calculated data
QI,Production Indices,113,Kyrgyzstan,432,Gross Production Index Number (2014-2016 = 100),2051,Agriculture,2018,2018,index,108.31,Fc,Calculated data
QI,Production Indices,119,Latvia,432,Gross Production Index Number (2014-2016 = 100),2051,Agriculture,2018,2018,index,82.93,Fc,Calculated data
QI,Production Indices,122,Lesotho,432,Gross Production Index Number (2014-2016 = 100),2051,Agriculture,2018,2018,index,103.29,Fc,Calculated data
QI,Production Indices,123,Liberia,432,Gross Production Index Number (2014-2016 = 100),2051,Agriculture,2018,2018,index,100.09,Fc,Calculated data
QI,Production Indices,124,Libya,432,Gross Production Index Number (2014-2016 = 100),2051,Agriculture,2018,2018,index,101.13,Fc,Calculated data
QI,Production Indices,126,Lithuania,432,Gross Production Index Number (2014-2016 = 100),2051,Agriculture,2018,2018,index,83.22,Fc,Calculated data
QI,Production Indices,256,Luxembourg,432,Gross Production Index Number (2014-2016 = 100),2051,Agriculture,2018,2018,index,111.17,Fc,Calculated data
QI,Production Indices,130,Malawi,432,Gross Production Index Number (2014-2016 = 100),2051,Agriculture,2018,2018,index,121.26,Fc,Calculated data
QI,Production Indices,131,Malaysia,432,Gross Production Index Number (2014-2016 = 100),2051,Agriculture,2018,2018,index,102.53,Fc,Calculated data
QI,Production Indices,134,Malta,432,Gross Production Index Number (2014-2016 = 100),2051,Agriculture,2018,2018,index,77.32,Fc,Calculated data
QI,Production Indices,136,Mauritania,432,Gross Production Index Number (2014-2016 = 100),2051,Agriculture,2018,2018,index,105.99,Fc,Calculated data
QI,Production Indices,137,Mauritius,432,Gross Production Index Number (2014-2016 = 100),2051,Agriculture,2018,2018,index,89.45,Fc,Calculated data
QI,Production Indices,138,Mexico,432,Gross Production Index Number (2014-2016 = 100),2051,Agriculture,2018,2018,index,111.08,Fc,Calculated data
QI,Production Indices,141,Mongolia,432,Gross Production Index Number (2014-2016 = 100),2051,Agriculture,2018,2018,index,131.24,Fc,Calculated data
QI,Production Indices,273,Montenegro,432,Gross Production Index Number (2014-2016 = 100),2051,Agriculture,2018,2018,index,101.57,Fc,Calculated data
QI,Production Indices,143,Morocco,432,Gross Production Index Number (2014-2016 = 100),2051,Agriculture,2018,2018,index,115.47,Fc,Calculated data
QI,Production Indices,144,Mozambique,432,Gross Production Index Number (2014-2016 = 100),2051,Agriculture,2018,2018,index,127.84,Fc,Calculated data
QI,Production Indices,147,Namibia,432,Gross Production Index Number (2014-2016 = 100),2051,Agriculture,2018,2018,index,104.89,Fc,Calculated data
QI,Production Indices,149,Nepal,432,Gross Production Index Number (2014-2016 = 100),2051,Agriculture,2018,2018,index,106.83,Fc,Calculated data
QI,Production Indices,150,Netherlands,432,Gross Production Index Number (2014-2016 = 100),2051,Agriculture,2018,2018,index,96.66,Fc,Calculated data
QI,Production Indices,156,New Zealand,432,Gross Production Index Number (2014-2016 = 100),2051,Agriculture,2018,2018,index,99.25,Fc,Calculated data
QI,Production Indices,159,Nigeria,432,Gross Production Index Number (2014-2016 = 100),2051,Agriculture,2018,2018,index,105.27,Fc,Calculated data
QI,Production Indices,154,North Macedonia,432,Gross Production Index Number (2014-2016 = 100),2051,Agriculture,2018,2018,index,101.57,Fc,Calculated data
QI,Production Indices,162,Norway,432,Gross Production Index Number (2014-2016 = 100),2051,Agriculture,2018,2018,index,96.58,Fc,Calculated data
QI,Production Indices,299,Palestine,432,Gross Production Index Number (2014-2016 = 100),2051,Agriculture,2018,2018,index,112.48,Fc,Calculated data
QI,Production Indices,171,Philippines,432,Gross Production Index Number (2014-2016 = 100),2051,Agriculture,2018,2018,index,104.53,Fc,Calculated data
QI,Production Indices,173,Poland,432,Gross Production Index Number (2014-2016 = 100),2051,Agriculture,2018,2018,index,103.01,Fc,Calculated data
QI,Production Indices,174,Portugal,432,Gross Production Index Number (2014-2016 = 100),2051,Agriculture,2018,2018,index,99.98,Fc,Calculated data
QI,Production Indices,117,Republic of Korea,432,Gross Production Index Number (2014-2016 = 100),2051,Agriculture,2018,2018,index,99.05,Fc,Calculated data
QI,Production Indices,146,Republic of Moldova,432,Gross Production Index Number (2014-2016 = 100),2051,Agriculture,2018,2018,index,121.03,Fc,Calculated data
QI,Production Indices,183,Romania,432,Gross Production Index Number (2014-2016 = 100),2051,Agriculture,2018,2018,index,118.42,Fc,Calculated data
QI,Production Indices,185,Russian Federation,432,Gross Production Index Number (2014-2016 = 100),2051,Agriculture,2018,2018,index,104.66,Fc,Calculated data
QI,Production Indices,244,Samoa,432,Gross Production Index Number (2014-2016 = 100),2051,Agriculture,2018,2018,index,103.65,Fc,Calculated data
QI,Production Indices,195,Senegal,432,Gross Production Index Number (2014-2016 = 100),2051,Agriculture,2018,2018,index,156.83,Fc,Calculated data
QI,Production Indices,272,Serbia,432,Gross Production Index Number (2014-2016 = 100),2051,Agriculture,2018,2018,index,107.19,Fc,Calculated data
QI,Production Indices,197,Sierra Leone,432,Gross Production Index Number (2014-2016 = 100),2051,Agriculture,2018,2018,index,100.6,Fc,Calculated data
QI,Production Indices,200,Singapore,432,Gross Production Index Number (2014-2016 = 100),2051,Agriculture,2018,2018,index,112.86,Fc,Calculated data
QI,Production Indices,199,Slovakia,432,Gross Production Index Number (2014-2016 = 100),2051,Agriculture,2018,2018,index,97.62,Fc,Calculated data
QI,Production Indices,198,Slovenia,432,Gross Production Index Number (2014-2016 = 100),2051,Agriculture,2018,2018,index,101.73,Fc,Calculated data
QI,Production Indices,277,South Sudan,432,Gross Production Index Number (2014-2016 = 100),2051,Agriculture,2018,2018,index,102.23,Fc,Calculated data
QI,Production Indices,203,Spain,432,Gross Production Index Number (2014-2016 = 100),2051,Agriculture,2018,2018,index,117.17,Fc,Calculated data
QI,Production Indices,276,Sudan,432,Gross Production Index Number (2014-2016 = 100),2051,Agriculture,2018,2018,index,118.1,Fc,Calculated data
QI,Production Indices,210,Sweden,432,Gross Production Index Number (2014-2016 = 100),2051,Agriculture,2018,2018,index,84.04,Fc,Calculated data
QI,Production Indices,211,Switzerland,432,Gross Production Index Number (2014-2016 = 100),2051,Agriculture,2018,2018,index,101.38,Fc,Calculated data
QI,Production Indices,222,Tunisia,432,Gross Production Index Number (2014-2016 = 100),2051,Agriculture,2018,2018,index,97.98,Fc,Calculated data
QI,Production Indices,226,Uganda,432,Gross Production Index Number (2014-2016 = 100),2051,Agriculture,2018,2018,index,101.56,Fc,Calculated data
QI,Production Indices,230,Ukraine,432,Gross Production Index Number (2014-2016 = 100),2051,Agriculture,2018,2018,index,107.68,Fc,Calculated data
QI,Production Indices,229,United Kingdom of Great Britain and Northern Ireland,432,Gross Production Index Number (2014-2016 = 100),2051,Agriculture,2018,2018,index,99.42,Fc,Calculated data
QI,Production Indices,215,United Republic of Tanzania,432,Gross Production Index Number (2014-2016 = 100),2051,Agriculture,2018,2018,index,105.99,Fc,Calculated data
QI,Production Indices,231,United States of America,432,Gross Production Index Number (2014-2016 = 100),2051,Agriculture,2018,2018,index,103.49,Fc,Calculated data
QI,Production Indices,234,Uruguay,432,Gross Production Index Number (2014-2016 = 100),2051,Agriculture,2018,2018,index,89.53,Fc,Calculated data
QI,Production Indices,235,Uzbekistan,432,Gross Production Index Number (2014-2016 = 100),2051,Agriculture,2018,2018,index,100.2,Fc,Calculated data
QI,Production Indices,237,Viet Nam,432,Gross Production Index Number (2014-2016 = 100),2051,Agriculture,2018,2018,index,105.77,Fc,Calculated data
QI,Production Indices,181,Zimbabwe,432,Gross Production Index Number (2014-2016 = 100),2051,Agriculture,2018,2018,index,119.61,Fc,Calculated data
